…
``` r
pups_df = janitor::clean_names(pups_df)
```

## `select`

Use `select` to select variables

``` r
select(litters_df, group, litter_number, gd0_weight)
```

    ## # A tibble: 49 × 3
    ##    group litter_number   gd0_weight
    ##    <chr> <chr>                <dbl>
    ##  1 Con7  #85                   19.7
    ##  2 Con7  #1/2/95/2             27  
    ##  3 Con7  #5/5/3/83/3-3         26  
    ##  4 Con7  #5/4/2/95/2           28.5
    ##  5 Con7  #4/2/95/3-3           NA  
    ##  6 Con7  #2/2/95/3-2           NA  
    ##  7 Con7  #1/5/3/83/3-3/2       NA  
    ##  8 Con8  #3/83/3-3             NA  
    ##  9 Con8  #2/95/3               NA  
    ## 10 Con8  #3/5/2/2/95           28.5
    ## # ℹ 39 more rows

``` r
select(litters_df, group:gd18_weight)
```

    ## # A tibble: 49 × 4
    ##    group litter_number   gd0_weight gd18_weight
    ##    <chr> <chr>                <dbl>       <dbl>
    ##  1 Con7  #85                   19.7        34.7
    ##  2 Con7  #1/2/95/2             27          42  
    ##  3 Con7  #5/5/3/83/3-3         26          41.4
    ##  4 Con7  #5/4/2/95/2           28.5        44.1
    ##  5 Con7  #4/2/95/3-3           NA          NA  
    ##  6 Con7  #2/2/95/3-2           NA          NA  
    ##  7 Con7  #1/5/3/83/3-3/2       NA          NA  
    ##  8 Con8  #3/83/3-3             NA          NA  
    ##  9 Con8  #2/95/3               NA          NA  
    ## 10 Con8  #3/5/2/2/95           28.5        NA  
    ## # ℹ 39 more rows

``` r
select(litters_df, -pups_survive)
```

    ## # A tibble: 49 × 7
    ##    group litter_number   gd0_weight gd18_weight gd_of_birth pups_born_alive
    ##    <chr> <chr>                <dbl>       <dbl>       <dbl>           <dbl>
    ##  1 Con7  #85                   19.7        34.7          20               3
    ##  2 Con7  #1/2/95/2             27          42            19               8
    ##  3 Con7  #5/5/3/83/3-3         26          41.4          19               6
    ##  4 Con7  #5/4/2/95/2           28.5        44.1          19               5
    ##  5 Con7  #4/2/95/3-3           NA          NA            20               6
    ##  6 Con7  #2/2/95/3-2           NA          NA            20               6
    ##  7 Con7  #1/5/3/83/3-3/2       NA          NA            20               9
    ##  8 Con8  #3/83/3-3             NA          NA            20               9
    ##  9 Con8  #2/95/3               NA          NA            20               8
    ## 10 Con8  #3/5/2/2/95           28.5        NA            20               8
    ## # ℹ 39 more rows
    ## # ℹ 1 more variable: pups_dead_birth <dbl>

``` r
select(litters_df, -(group:gd18_weight))
```

    ## # A tibble: 49 × 4
    ##    gd_of_birth pups_born_alive pups_dead_birth pups_survive
    ##          <dbl>           <dbl>           <dbl>        <dbl>
    ##  1          20               3               4            3
    ##  2          19               8               0            7
    ##  3          19               6               0            5
    ##  4          19               5               1            4
    ##  5          20               6               0            6
    ##  6          20               6               0            4
    ##  7          20               9               0            9
    ##  8          20               9               1            8
    ##  9          20               8               0            8
    ## 10          20               8               0            8
    ## # ℹ 39 more rows

``` r
select(litters_df, starts_with("gd"))
```

    ## # A tibble: 49 × 3
    ##    gd0_weight gd18_weight gd_of_birth
    ##         <dbl>       <dbl>       <dbl>
    ##  1       19.7        34.7          20
    ##  2       27          42            19
    ##  3       26          41.4          19
    ##  4       28.5        44.1          19
    ##  5       NA          NA            20
    ##  6       NA          NA            20
    ##  7       NA          NA            20
    ##  8       NA          NA            20
    ##  9       NA          NA            20
    ## 10       28.5        NA            20
    ## # ℹ 39 more rows

``` r
select(litters_df, contains("pups"))
```

    ## # A tibble: 49 × 3
    ##    pups_born_alive pups_dead_birth pups_survive
    ##              <dbl>           <dbl>        <dbl>
    ##  1               3               4            3
    ##  2               8               0            7
    ##  3               6               0            5
    ##  4               5               1            4
    ##  5               6               0            6
    ##  6               6               0            4
    ##  7               9               0            9
    ##  8               9               1            8
    ##  9               8               0            8
    ## 10               8               0            8
    ## # ℹ 39 more rows

``` r
select(litters_df, GROUP = group)
```

    ## # A tibble: 49 × 1
    ##    GROUP
    ##    <chr>
    ##  1 Con7 
    ##  2 Con7 
    ##  3 Con7 
    ##  4 Con7 
    ##  5 Con7 
    ##  6 Con7 
    ##  7 Con7 
    ##  8 Con8 
    ##  9 Con8 
    ## 10 Con8 
    ## # ℹ 39 more rows

``` r
rename(litters_df, GROUP = group)
```

    ## # A tibble: 49 × 8
    ##    GROUP litter_number   gd0_weight gd18_weight gd_of_birth pups_born_alive
    ##    <chr> <chr>                <dbl>       <dbl>       <dbl>           <dbl>
    ##  1 Con7  #85                   19.7        34.7          20               3
    ##  2 Con7  #1/2/95/2             27          42            19               8
    ##  3 Con7  #5/5/3/83/3-3         26          41.4          19               6
    ##  4 Con7  #5/4/2/95/2           28.5        44.1          19               5
    ##  5 Con7  #4/2/95/3-3           NA          NA            20               6
    ##  6 Con7  #2/2/95/3-2           NA          NA            20               6
    ##  7 Con7  #1/5/3/83/3-3/2       NA          NA            20               9
    ##  8 Con8  #3/83/3-3             NA          NA            20               9
    ##  9 Con8  #2/95/3               NA          NA            20               8
    ## 10 Con8  #3/5/2/2/95           28.5        NA            20               8
    ## # ℹ 39 more rows
    ## # ℹ 2 more variables: pups_dead_birth <dbl>, pups_survive <dbl>

``` r
select(litters_df, litter_number, gd0_weight, everything())
```

    ## # A tibble: 49 × 8
    ##    litter_number   gd0_weight group gd18_weight gd_of_birth pups_born_alive
    ##    <chr>                <dbl> <chr>       <dbl>       <dbl>           <dbl>
    ##  1 #85                   19.7 Con7         34.7          20               3
    ##  2 #1/2/95/2             27   Con7         42            19               8
    ##  3 #5/5/3/83/3-3         26   Con7         41.4          19               6
    ##  4 #5/4/2/95/2           28.5 Con7         44.1          19               5
    ##  5 #4/2/95/3-3           NA   Con7         NA            20               6
    ##  6 #2/2/95/3-2           NA   Con7         NA            20               6
    ##  7 #1/5/3/83/3-3/2       NA   Con7         NA            20               9
    ##  8 #3/83/3-3             NA   Con8         NA            20               9
    ##  9 #2/95/3               NA   Con8         NA            20               8
    ## 10 #3/5/2/2/95           28.5 Con8         NA            20               8
    ## # ℹ 39 more rows
    ## # ℹ 2 more variables: pups_dead_birth <dbl>, pups_survive <dbl>

``` r
relocate(litters_df, litter_number, gd0_weight)
```

    ## # A tibble: 49 × 8
    ##    litter_number   gd0_weight group gd18_weight gd_of_birth pups_born_alive
    ##    <chr>                <dbl> <chr>       <dbl>       <dbl>           <dbl>
    ##  1 #85                   19.7 Con7         34.7          20               3
    ##  2 #1/2/95/2             27   Con7         42            19               8
    ##  3 #5/5/3/83/3-3         26   Con7         41.4          19               6
    ##  4 #5/4/2/95/2           28.5 Con7         44.1          19               5
    ##  5 #4/2/95/3-3           NA   Con7         NA            20               6
    ##  6 #2/2/95/3-2           NA   Con7         NA            20               6
    ##  7 #1/5/3/83/3-3/2       NA   Con7         NA            20               9
    ##  8 #3/83/3-3             NA   Con8         NA            20               9
    ##  9 #2/95/3               NA   Con8         NA            20               8
    ## 10 #3/5/2/2/95           28.5 Con8         NA            20               8
    ## # ℹ 39 more rows
    ## # ℹ 2 more variables: pups_dead_birth <dbl>, pups_survive <dbl>

``` r
select(pups_df, litter_number, sex, pd_ears)
```

    ## # A tibble: 313 × 3
    ##    litter_number   sex pd_ears
    ##    <chr>         <dbl>   <dbl>
    ##  1 #85               1       4
    ##  2 #85               1       4
    ##  3 #1/2/95/2         1       5
    ##  4 #1/2/95/2         1       5
    ##  5 #5/5/3/83/3-3     1       5
    ##  6 #5/5/3/83/3-3     1       5
    ##  7 #5/4/2/95/2       1      NA
    ##  8 #4/2/95/3-3       1       4
    ##  9 #4/2/95/3-3       1       4
    ## 10 #2/2/95/3-2       1       4
    ## # ℹ 303 more rows

## `filter`

filtering out rows.

``` r
filter(litters_df, gd_of_birth == 20)
```

    ## # A tibble: 32 × 8
    ##    group litter_number   gd0_weight gd18_weight gd_of_birth pups_born_alive
    ##    <chr> <chr>                <dbl>       <dbl>       <dbl>           <dbl>
    ##  1 Con7  #85                   19.7        34.7          20               3
    ##  2 Con7  #4/2/95/3-3           NA          NA            20               6
    ##  3 Con7  #2/2/95/3-2           NA          NA            20               6
    ##  4 Con7  #1/5/3/83/3-3/2       NA          NA            20               9
    ##  5 Con8  #3/83/3-3             NA          NA            20               9
    ##  6 Con8  #2/95/3               NA          NA            20               8
    ##  7 Con8  #3/5/2/2/95           28.5        NA            20               8
    ##  8 Con8  #1/6/2/2/95-2         NA          NA            20               7
    ##  9 Con8  #3/5/3/83/3-3-2       NA          NA            20               8
    ## 10 Con8  #3/6/2/2/95-3         NA          NA            20               7
    ## # ℹ 22 more rows
    ## # ℹ 2 more variables: pups_dead_birth <dbl>, pups_survive <dbl>
…
``` r
filter(litters_df, pups_born_alive >= 8)
```

    ## # A tibble: 28 × 8
    ##    group litter_number   gd0_weight gd18_weight gd_of_birth pups_born_alive
    ##    <chr> <chr>                <dbl>       <dbl>       <dbl>           <dbl>
    ##  1 Con7  #1/2/95/2             27          42            19               8
    ##  2 Con7  #1/5/3/83/3-3/2       NA          NA            20               9
    ##  3 Con8  #3/83/3-3             NA          NA            20               9
    ##  4 Con8  #2/95/3               NA          NA            20               8
    ##  5 Con8  #3/5/2/2/95           28.5        NA            20               8
    ##  6 Con8  #5/4/3/83/3           28          NA            19               9
    ##  7 Con8  #3/5/3/83/3-3-2       NA          NA            20               8
    ##  8 Mod7  #59                   17          33.4          19               8
    ##  9 Mod7  #103                  21.4        42.1          19               9
    ## 10 Mod7  #3/83/3-2             NA          NA            19               8
    ## # ℹ 18 more rows
    ## # ℹ 2 more variables: pups_dead_birth <dbl>, pups_survive <dbl>

``` r
filter(litters_df, pups_born_alive != 9)
```

    ## # A tibble: 39 × 8
    ##    group litter_number   gd0_weight gd18_weight gd_of_birth pups_born_alive
    ##    <chr> <chr>                <dbl>       <dbl>       <dbl>           <dbl>
    ##  1 Con7  #85                   19.7        34.7          20               3
    ##  2 Con7  #1/2/95/2             27          42            19               8
    ##  3 Con7  #5/5/3/83/3-3         26          41.4          19               6
    ##  4 Con7  #5/4/2/95/2           28.5        44.1          19               5
    ##  5 Con7  #4/2/95/3-3           NA          NA            20               6
    ##  6 Con7  #2/2/95/3-2           NA          NA            20               6
    ##  7 Con8  #2/95/3               NA          NA            20               8
    ##  8 Con8  #3/5/2/2/95           28.5        NA            20               8
    ##  9 Con8  #1/6/2/2/95-2         NA          NA            20               7
    ## 10 Con8  #3/5/3/83/3-3-2       NA          NA            20               8
    ## # ℹ 29 more rows
    ## # ℹ 2 more variables: pups_dead_birth <dbl>, pups_survive <dbl>
…
``` r
drop_na(litters_df)
```

    ## # A tibble: 31 × 8
    ##    group litter_number gd0_weight gd18_weight gd_of_birth pups_born_alive
    ##    <chr> <chr>              <dbl>       <dbl>       <dbl>           <dbl>
    ##  1 Con7  #85                 19.7        34.7          20               3
    ##  2 Con7  #1/2/95/2           27          42            19               8
    ##  3 Con7  #5/5/3/83/3-3       26          41.4          19               6
    ##  4 Con7  #5/4/2/95/2         28.5        44.1          19               5
    ##  5 Mod7  #59                 17          33.4          19               8
    ##  6 Mod7  #103                21.4        42.1          19               9
    ##  7 Mod7  #3/82/3-2           28          45.9          20               5
    ##  8 Mod7  #5/3/83/5-2         22.6        37            19               5
    ##  9 Mod7  #106                21.7        37.8          20               5
    ## 10 Mod7  #94/2               24.4        42.9          19               7
    ## # ℹ 21 more rows
    ## # ℹ 2 more variables: pups_dead_birth <dbl>, pups_survive <dbl>

``` r
drop_na(litters_df, gd0_weight)
```

    ## # A tibble: 34 × 8
    ##    group litter_number gd0_weight gd18_weight gd_of_birth pups_born_alive
    ##    <chr> <chr>              <dbl>       <dbl>       <dbl>           <dbl>
    ##  1 Con7  #85                 19.7        34.7          20               3
    ##  2 Con7  #1/2/95/2           27          42            19               8
    ##  3 Con7  #5/5/3/83/3-3       26          41.4          19               6
    ##  4 Con7  #5/4/2/95/2         28.5        44.1          19               5
    ##  5 Con8  #3/5/2/2/95         28.5        NA            20               8
    ##  6 Con8  #5/4/3/83/3         28          NA            19               9
    ##  7 Mod7  #59                 17          33.4          19               8
    ##  8 Mod7  #103                21.4        42.1          19               9
    ##  9 Mod7  #3/82/3-2           28          45.9          20               5
    ## 10 Mod7  #4/2/95/2           23.5        NA            19               9
    ## # ℹ 24 more rows
    ## # ℹ 2 more variables: pups_dead_birth <dbl>, pups_survive <dbl>

``` r
filter(pups_df, sex == 1)
```

    ## # A tibble: 155 × 6
    ##    litter_number   sex pd_ears pd_eyes pd_pivot pd_walk
    ##    <chr>         <dbl>   <dbl>   <dbl>    <dbl>   <dbl>
    ##  1 #85               1       4      13        7      11
    ##  2 #85               1       4      13        7      12
    ##  3 #1/2/95/2         1       5      13        7       9
    ##  4 #1/2/95/2         1       5      13        8      10
    ##  5 #5/5/3/83/3-3     1       5      13        8      10
    ##  6 #5/5/3/83/3-3     1       5      14        6       9
    ##  7 #5/4/2/95/2       1      NA      14        5       9
    ##  8 #4/2/95/3-3       1       4      13        6       8
    ##  9 #4/2/95/3-3       1       4      13        7       9
    ## 10 #2/2/95/3-2       1       4      NA        8      10
    ## # ℹ 145 more rows

``` r
filter(pups_df, pd_walk < 11, sex == 2)
```

    ## # A tibble: 127 × 6
    ##    litter_number   sex pd_ears pd_eyes pd_pivot pd_walk
    ##    <chr>         <dbl>   <dbl>   <dbl>    <dbl>   <dbl>
    ##  1 #1/2/95/2         2       4      13        7       9
    ##  2 #1/2/95/2         2       4      13        7      10
    ##  3 #1/2/95/2         2       5      13        8      10
    ##  4 #1/2/95/2         2       5      13        8      10
    ##  5 #1/2/95/2         2       5      13        6      10
    ##  6 #5/5/3/83/3-3     2       5      13        8      10
    ##  7 #5/5/3/83/3-3     2       5      14        7      10
    ##  8 #5/5/3/83/3-3     2       5      14        8      10
    ##  9 #5/4/2/95/2       2      NA      14        7      10
    ## 10 #5/4/2/95/2       2      NA      14        7      10
    ## # ℹ 117 more rows

## `mutate`

``` r
mutate(litters_df, wt_gain = gd18_weight - gd0_weight)
```

    ## # A tibble: 49 × 9
    ##    group litter_number   gd0_weight gd18_weight gd_of_birth pups_born_alive
    ##    <chr> <chr>                <dbl>       <dbl>       <dbl>           <dbl>
    ##  1 Con7  #85                   19.7        34.7          20               3
    ##  2 Con7  #1/2/95/2             27          42            19               8
    ##  3 Con7  #5/5/3/83/3-3         26          41.4          19               6
    ##  4 Con7  #5/4/2/95/2           28.5        44.1          19               5
    ##  5 Con7  #4/2/95/3-3           NA          NA            20               6
    ##  6 Con7  #2/2/95/3-2           NA          NA            20               6
    ##  7 Con7  #1/5/3/83/3-3/2       NA          NA            20               9
    ##  8 Con8  #3/83/3-3             NA          NA            20               9
    ##  9 Con8  #2/95/3               NA          NA            20               8
    ## 10 Con8  #3/5/2/2/95           28.5        NA            20               8
    ## # ℹ 39 more rows
    ## # ℹ 3 more variables: pups_dead_birth <dbl>, pups_survive <dbl>, wt_gain <dbl>

``` r
mutate(litters_df, sq_pups = pups_born_alive^2)
```

    ## # A tibble: 49 × 9
    ##    group litter_number   gd0_weight gd18_weight gd_of_birth pups_born_alive
    ##    <chr> <chr>                <dbl>       <dbl>       <dbl>           <dbl>
    ##  1 Con7  #85                   19.7        34.7          20               3
    ##  2 Con7  #1/2/95/2             27          42            19               8
    ##  3 Con7  #5/5/3/83/3-3         26          41.4          19               6
    ##  4 Con7  #5/4/2/95/2           28.5        44.1          19               5
    ##  5 Con7  #4/2/95/3-3           NA          NA            20               6
    ##  6 Con7  #2/2/95/3-2           NA          NA            20               6
    ##  7 Con7  #1/5/3/83/3-3/2       NA          NA            20               9
    ##  8 Con8  #3/83/3-3             NA          NA            20               9
    ##  9 Con8  #2/95/3               NA          NA            20               8
    ## 10 Con8  #3/5/2/2/95           28.5        NA            20               8
    ## # ℹ 39 more rows
    ## # ℹ 3 more variables: pups_dead_birth <dbl>, pups_survive <dbl>, sq_pups <dbl>
…
